…
2. **Using a dataset of your choice, show (by including the split-apply-combine command(s) in your answer) how you can use the split-apply-combine strategy for a part of the data analysis.**

  If we want to find the average dist for every speed on `cars`.
  
  
  {% highlight r %}
  # use dplyr
  cars %>% group_by(speed) %>% mutate_at(vars(dist), funs(ave_dist = mean(.)*speed))
  {% endhighlight %}
  
  
  
  {% highlight text %}
  ## # A tibble: 50 x 3
  ## # Groups:   speed [19]
  ##    speed  dist ave_dist
  ##    <dbl> <dbl>    <dbl>
  ##  1     4     2      24 
  ##  2     4    10      24 
  ##  3     7     4      91 
  ##  4     7    22      91 
  ##  5     8    16     128 
  ##  6     9    10      90 
  ##  7    10    18     260 
  ##  8    10    26     260 
  ##  9    10    34     260 
  ## 10    11    17     248.
  ## # ... with 40 more rows
…
